Betting Data Exploration
…
games %>% filter(is.na(games$Season))

# A tibble: 381 × 10
   Date       HomeTeam   AwayTeam      FTHG  FTAG FTR   B365H B365D B365A Season
   <date>     <chr>      <chr>        <dbl> <dbl> <chr> <dbl> <dbl> <dbl>  <dbl>
 1 2014-08-16 Arsenal    Crystal Pal…     2     1 H      1.25  6.5  15        NA
 2 2014-08-16 Leicester  Everton          2     2 D      3.2   3.4   2.4      NA
 3 2014-08-16 Man United Swansea          1     2 A      1.36  5    11        NA
 4 2014-08-16 QPR        Hull             0     1 A      2.5   3.3   3.1      NA
 5 2014-08-16 Stoke      Aston Villa      0     1 A      1.95  3.5   4.5      NA
 6 2014-08-16 West Brom  Sunderland       2     2 D      2.25  3.4   3.5      NA
 7 2014-08-16 West Ham   Tottenham        0     1 A      3.8   3.6   2.05     NA
 8 2014-08-17 Liverpool  Southampton      2     1 H      1.33  5.75 10        NA
 9 2014-08-17 Newcastle  Man City         0     2 A      5.25  4.33  1.67     NA
10 2014-08-18 Burnley    Chelsea          1     3 A      9     5     1.4      NA
# ℹ 371 more rows
…
ℹ Use `spec()` to retrieve the full column specification for this data.
ℹ Specify the column types or set `show_col_types = FALSE` to quiet this message.

team_level <- team_level %>% left_join(relegated)

Joining with `by = join_by(season, team)`

team_level %>% filter(season == 2004)

# A tibble: 760 × 12
   date       season team       opponent     goals_for goals_against  home  odds
   <date>      <dbl> <chr>      <chr>            <dbl>         <dbl> <dbl> <dbl>
 1 2003-08-16   2004 Arsenal    Everton              2             1     1  1.4 
 2 2003-08-16   2004 Birmingham Tottenham            1             0     1  2.38
 3 2003-08-16   2004 Blackburn  Wolves               5             1     1  1.62
 4 2003-08-16   2004 Fulham     Middlesbrou…         3             2     1  2.3 
 5 2003-08-16   2004 Leicester  Southampton          2             2     1  2.5 
 6 2003-08-16   2004 Man United Bolton               4             0     1  1.29
 7 2003-08-16   2004 Portsmouth Aston Villa          2             1     1  2.38
 8 2003-08-16   2004 Everton    Arsenal              1             2     0  8   
 9 2003-08-16   2004 Tottenham  Birmingham           0             1     0  2.75
10 2003-08-16   2004 Wolves     Blackburn            1             5     0  5.5 
# ℹ 750 more rows
# ℹ 4 more variables: odds_draw <dbl>, result <chr>, promoted <lgl>,
#   relegated <lgl>

team_level$promoted[is.na(team_level$promoted)] <- FALSE
team_level$relegated[is.na(team_level$relegated)] <- FALSE
team_level %>% filter(season == 2004)

# A tibble: 760 × 12
   date       season team       opponent     goals_for goals_against  home  odds
   <date>      <dbl> <chr>      <chr>            <dbl>         <dbl> <dbl> <dbl>
 1 2003-08-16   2004 Arsenal    Everton              2             1     1  1.4 
 2 2003-08-16   2004 Birmingham Tottenham            1             0     1  2.38
 3 2003-08-16   2004 Blackburn  Wolves               5             1     1  1.62
 4 2003-08-16   2004 Fulham     Middlesbrou…         3             2     1  2.3 
 5 2003-08-16   2004 Leicester  Southampton          2             2     1  2.5 
 6 2003-08-16   2004 Man United Bolton               4             0     1  1.29
 7 2003-08-16   2004 Portsmouth Aston Villa          2             1     1  2.38
 8 2003-08-16   2004 Everton    Arsenal              1             2     0  8   
 9 2003-08-16   2004 Tottenham  Birmingham           0             1     0  2.75
10 2003-08-16   2004 Wolves     Blackburn            1             5     0  5.5 
# ℹ 750 more rows
# ℹ 4 more variables: odds_draw <dbl>, result <chr>, promoted <lgl>,
#   relegated <lgl>
…
